Factors Influencing the View- Completion Rates of Streamed Shows in Asian Countries
…
european_language <- c("Catalan; Valencian", "Danish", "Dutch; Flemish", "English",
                       "Esperanto", "French", "German", "Hungarian", "Italian", 
                       "Macedonian", "Norwegian", "Portuguese", "Russian", "Spanish; Castilian",
                       "Swedish")

assetplay <- assetplay %>% 
  mutate(source_language_g = ifelse(source_language %in% asian_language, "Asian_Language",
                                    ifelse(source_language %in% european_language,"European_Language","Others_lang")))

# Reduce the number of categories for "genre"
# To find out the top genre: 
assetplay %>% group_by(genre) %>% summarise(n = n(), percent = n/nrow(assetplay)* 100) %>%  arrange(desc(n))

## # A tibble: 29 x 3
##    genre                          n percent
##    <chr>                      <int>   <dbl>
##  1 Drama                     146847   39.4 
##  2 Comedy                     54420   14.6 
##  3 Romance                    45085   12.1 
##  4 Action and Adventure       27565    7.39
##  5 Kids                       26546    7.12
##  6 Horror                     21179    5.68
##  7 Fantasy                    16696    4.48
##  8 Anime                       9838    2.64
##  9 Thriller                    4971    1.33
## 10 Documentary and Biography   4198    1.13
## # ... with 19 more rows
…
